%YAML 1.1
%TAG !u! tag:unity3d.com,2011:
--- !u!1 &3602250058412089012
GameObject:
  m_ObjectHideFlags: 0
  m_CorrespondingSourceObject: {fileID: 0}
  m_PrefabInstance: {fileID: 0}
  m_PrefabAsset: {fileID: 0}
  serializedVersion: 6
  m_Component:
  - component: {fileID: 3602250058412089011}
  - component: {fileID: 3602250058412089009}
  - component: {fileID: 3602250058412089010}
  m_Layer: 8
  m_Name: Collider
  m_TagString: Untagged
  m_Icon: {fileID: 0}
  m_NavMeshLayer: 0
  m_StaticEditorFlags: 0
  m_IsActive: 1
--- !u!4 &3602250058412089011
Transform:
  m_ObjectHideFlags: 0
  m_CorrespondingSourceObject: {fileID: 0}
  m_PrefabInstance: {fileID: 0}
  m_PrefabAsset: {fileID: 0}
  m_GameObject: {fileID: 3602250058412089012}
  m_LocalRotation: {x: 0, y: 0, z: 0, w: 1}
  m_LocalPosition: {x: 0, y: -0.03, z: 0}
  m_LocalScale: {x: 1, y: 1, z: 1}
  m_Children: []
  m_Father: {fileID: 3602250058457704981}
  m_RootOrder: 1
  m_LocalEulerAnglesHint: {x: 0, y: 0, z: 0}
--- !u!135 &3602250058412089009
SphereCollider:
  m_ObjectHideFlags: 0
  m_CorrespondingSourceObject: {fileID: 0}
  m_PrefabInstance: {fileID: 0}
  m_PrefabAsset: {fileID: 0}
  m_GameObject: {fileID: 3602250058412089012}
  m_Material: {fileID: 0}
  m_IsTrigger: 1
  m_Enabled: 1
  serializedVersion: 2
  m_Radius: 1
  m_Center: {x: 0, y: 0, z: 0}
--- !u!114 &3602250058412089010
MonoBehaviour:
  m_ObjectHideFlags: 0
  m_CorrespondingSourceObject: {fileID: 0}
  m_PrefabInstance: {fileID: 0}
  m_PrefabAsset: {fileID: 0}
  m_GameObject: {fileID: 3602250058412089012}
  m_Enabled: 1
  m_EditorHideFlags: 0
  m_Script: {fileID: 11500000, guid: 9a27758ba657782459bd01c7275c2484, type: 3}
  m_Name: 
  m_EditorClassIdentifier: 
  LayerOnEnter: 9
  LayerOnExit: 0
--- !u!1 &3602250058457704982
GameObject:
  m_ObjectHideFlags: 0
  m_CorrespondingSourceObject: {fileID: 0}
  m_PrefabInstance: {fileID: 0}
  m_PrefabAsset: {fileID: 0}
  serializedVersion: 6
  m_Component:
  - component: {fileID: 3602250058457704981}
  m_Layer: 0
  m_Name: HolePrefab
  m_TagString: Untagged
  m_Icon: {fileID: 0}
  m_NavMeshLayer: 0
  m_StaticEditorFlags: 0
  m_IsActive: 1
--- !u!4 &3602250058457704981
Transform:
  m_ObjectHideFlags: 0
  m_CorrespondingSourceObject: {fileID: 0}
  m_PrefabInstance: {fileID: 0}
  m_PrefabAsset: {fileID: 0}
  m_GameObject: {fileID: 3602250058457704982}
  m_LocalRotation: {x: 0, y: 0, z: 0, w: 1}
  m_LocalPosition: {x: -3.03, y: 0.84, z: -0.26}
  m_LocalScale: {x: 1, y: 1, z: 1}
  m_Children:
  - {fileID: 8396811530762252904}
  - {fileID: 3602250058412089011}
  m_Father: {fileID: 0}
  m_RootOrder: 0
  m_LocalEulerAnglesHint: {x: 0, y: 0, z: 0}
--- !u!64 &1383253557
MeshCollider:
  m_ObjectHideFlags: 0
  m_CorrespondingSourceObject: {fileID: 0}
  m_PrefabInstance: {fileID: 0}
  m_PrefabAsset: {fileID: 0}
  m_GameObject: {fileID: 9002238810659461421}
  m_Material: {fileID: 0}
  m_IsTrigger: 0
  m_Enabled: 1
  serializedVersion: 4
  m_Convex: 0
  m_CookingOptions: 30
  m_Mesh: {fileID: 1875637569288839456, guid: abcb8f4bcb6648e40ae43d488db0be6e, type: 3}
--- !u!1001 &3602250059043133810
PrefabInstance:
  m_ObjectHideFlags: 0
  serializedVersion: 2
  m_Modification:
    m_TransformParent: {fileID: 3602250058457704981}
    m_Modifications:
    - target: {fileID: -4216859302048453862, guid: abcb8f4bcb6648e40ae43d488db0be6e, type: 3}
      propertyPath: m_LocalPosition.x
      value: 0
      objectReference: {fileID: 0}
    - target: {fileID: -4216859302048453862, guid: abcb8f4bcb6648e40ae43d488db0be6e, type: 3}
      propertyPath: m_LocalPosition.y
      value: 0
      objectReference: {fileID: 0}
    - target: {fileID: -4216859302048453862, guid: abcb8f4bcb6648e40ae43d488db0be6e, type: 3}
      propertyPath: m_LocalPosition.z
      value: 0
      objectReference: {fileID: 0}
    - target: {fileID: -4216859302048453862, guid: abcb8f4bcb6648e40ae43d488db0be6e, type: 3}
      propertyPath: m_LocalRotation.x
      value: -0
      objectReference: {fileID: 0}
    - target: {fileID: -4216859302048453862, guid: abcb8f4bcb6648e40ae43d488db0be6e, type: 3}
      propertyPath: m_LocalRotation.y
      value: -0
      objectReference: {fileID: 0}
    - target: {fileID: -4216859302048453862, guid: abcb8f4bcb6648e40ae43d488db0be6e, type: 3}
      propertyPath: m_LocalRotation.z
      value: -0
      objectReference: {fileID: 0}
    - target: {fileID: -4216859302048453862, guid: abcb8f4bcb6648e40ae43d488db0be6e, type: 3}
      propertyPath: m_LocalRotation.w
      value: 1
      objectReference: {fileID: 0}
    - target: {fileID: -4216859302048453862, guid: abcb8f4bcb6648e40ae43d488db0be6e, type: 3}
      propertyPath: m_RootOrder
      value: 0
      objectReference: {fileID: 0}
    - target: {fileID: -4216859302048453862, guid: abcb8f4bcb6648e40ae43d488db0be6e, type: 3}
      propertyPath: m_LocalEulerAnglesHint.x
      value: 0
      objectReference: {fileID: 0}
    - target: {fileID: -4216859302048453862, guid: abcb8f4bcb6648e40ae43d488db0be6e, type: 3}
      propertyPath: m_LocalEulerAnglesHint.y
      value: 0
      objectReference: {fileID: 0}
    - target: {fileID: -4216859302048453862, guid: abcb8f4bcb6648e40ae43d488db0be6e, type: 3}
      propertyPath: m_LocalEulerAnglesHint.z
      value: 0
      objectReference: {fileID: 0}
    - target: {fileID: -927199367670048503, guid: abcb8f4bcb6648e40ae43d488db0be6e, type: 3}
      propertyPath: m_Name
      value: HoleModel
      objectReference: {fileID: 0}
    - target: {fileID: -927199367670048503, guid: abcb8f4bcb6648e40ae43d488db0be6e, type: 3}
      propertyPath: m_Layer
      value: 8
      objectReference: {fileID: 0}
    - target: {fileID: 3358763364417567010, guid: abcb8f4bcb6648e40ae43d488db0be6e, type: 3}
      propertyPath: m_Materials.Array.data[0]
      value: 
      objectReference: {fileID: 2100000, guid: 80d283e9de8129f4697e605a970d2cf3, type: 2}
    - target: {fileID: 4070248560334472202, guid: abcb8f4bcb6648e40ae43d488db0be6e, type: 3}
      propertyPath: m_Materials.Array.data[0]
      value: 
      objectReference: {fileID: 2100000, guid: e83f887522e093b48851d399a7067c13, type: 2}
    - target: {fileID: 5553962910464786527, guid: abcb8f4bcb6648e40ae43d488db0be6e, type: 3}
      propertyPath: m_Layer
      value: 8
      objectReference: {fileID: 0}
    - target: {fileID: 6466098550546339893, guid: abcb8f4bcb6648e40ae43d488db0be6e, type: 3}
      propertyPath: m_Layer
      value: 8
      objectReference: {fileID: 0}
    m_RemovedComponents: []
  m_SourcePrefab: {fileID: 100100000, guid: abcb8f4bcb6648e40ae43d488db0be6e, type: 3}
--- !u!4 &8396811530762252904 stripped
Transform:
  m_CorrespondingSourceObject: {fileID: -4216859302048453862, guid: abcb8f4bcb6648e40ae43d488db0be6e, type: 3}
  m_PrefabInstance: {fileID: 3602250059043133810}
  m_PrefabAsset: {fileID: 0}
--- !u!1 &9002238810659461421 stripped
GameObject:
  m_CorrespondingSourceObject: {fileID: 5553962910464786527, guid: abcb8f4bcb6648e40ae43d488db0be6e, type: 3}
  m_PrefabInstance: {fileID: 3602250059043133810}
  m_PrefabAsset: {fileID: 0}
